properties{
  x = 0,
  y = 0,
  width = 320,
  height = 240,
  min_layer = 0,
  max_layer = 2,
  tileset = "dungeon/light_brown",
  music = "potion",
}

tile{
  layer = 0,
  x = 56,
  y = 56,
  width = 208,
  height = 160,
  pattern = "floor_low.1-1",
}

tile{
  layer = 0,
  x = 56,
  y = 56,
  width = 8,
  height = 160,
  pattern = "wall_border.3-1",
}

tile{
  layer = 0,
  x = 56,
  y = 56,
  width = 208,
  height = 8,
  pattern = "wall_border.1-1",
}

tile{
  layer = 0,
  x = 32,
  y = 32,
  width = 24,
  height = 24,
  pattern = "wall.corner.1-1",
}

tile{
  layer = 0,
  x = 56,
  y = 32,
  width = 208,
  height = 24,
  pattern = "wall.1-1",
}

tile{
  layer = 0,
  x = 264,
  y = 32,
  width = 24,
  height = 24,
  pattern = "wall.corner.2-1",
}

tile{
  layer = 0,
  x = 32,
  y = 56,
  width = 24,
  height = 160,
  pattern = "wall.3-1",
}

tile{
  layer = 0,
  x = 32,
  y = 216,
  width = 24,
  height = 24,
  pattern = "wall.corner.3-1",
}

tile{
  layer = 0,
  x = 264,
  y = 216,
  width = 24,
  height = 24,
  pattern = "wall.corner.4-1",
}

tile{
  layer = 0,
  x = 56,
  y = 216,
  width = 208,
  height = 24,
  pattern = "wall.2-1",
}

tile{
  layer = 0,
  x = 264,
  y = 56,
  width = 24,
  height = 160,
  pattern = "wall.4-1",
}

tile{
  layer = 0,
  x = 56,
  y = 56,
  width = 8,
  height = 8,
  pattern = "wall_border.corner.1-1",
}

tile{
  layer = 0,
  x = 56,
  y = 208,
  width = 208,
  height = 8,
  pattern = "wall_border.2-1",
}

tile{
  layer = 0,
  x = 256,
  y = 56,
  width = 8,
  height = 160,
  pattern = "wall_border.4-1",
}

tile{
  layer = 0,
  x = 56,
  y = 208,
  width = 8,
  height = 8,
  pattern = "wall_border.corner.3-1",
}

tile{
  layer = 0,
  x = 256,
  y = 208,
  width = 8,
  height = 8,
  pattern = "wall_border.corner.4-1",
}

tile{
  layer = 0,
  x = 256,
  y = 56,
  width = 8,
  height = 8,
  pattern = "wall_border.corner.2-1",
}

tile{
  layer = 0,
  x = 152,
  y = 216,
  width = 16,
  height = 16,
  pattern = "door.2",
}

tile{
  layer = 0,
  x = 144,
  y = 216,
  width = 8,
  height = 16,
  pattern = "door.2.support.1-1",
}

tile{
  layer = 0,
  x = 168,
  y = 216,
  width = 8,
  height = 16,
  pattern = "door.2.support.2-1",
}

tile{
  layer = 0,
  x = 152,
  y = 232,
  width = 16,
  height = 16,
  pattern = "floor_low.1-1",
}

tile{
  layer = 0,
  x = 152,
  y = 240,
  width = 16,
  height = 8,
  pattern = "barrier.1-1",
}

tile{
  layer = 0,
  x = 64,
  y = 88,
  width = 48,
  height = 24,
  pattern = "stove",
}

tile{
  layer = 0,
  x = 64,
  y = 136,
  width = 48,
  height = 24,
  pattern = "stove",
}

tile{
  layer = 0,
  x = 208,
  y = 88,
  width = 48,
  height = 24,
  pattern = "stove",
}

tile{
  layer = 0,
  x = 208,
  y = 136,
  width = 48,
  height = 24,
  pattern = "stove",
}

tile{
  layer = 0,
  x = 64,
  y = 192,
  width = 16,
  height = 16,
  pattern = "seat.1",
}

tile{
  layer = 0,
  x = 208,
  y = 32,
  width = 32,
  height = 32,
  pattern = "cook.pot",
}

tile{
  layer = 0,
  x = 160,
  y = 32,
  width = 16,
  height = 32,
  pattern = "wine_rack.2",
}

tile{
  layer = 0,
  x = 144,
  y = 32,
  width = 16,
  height = 32,
  pattern = "wine_rack.1",
}

tile{
  layer = 0,
  x = 176,
  y = 32,
  width = 16,
  height = 32,
  pattern = "wine_rack.3",
}

tile{
  layer = 0,
  x = 80,
  y = 32,
  width = 16,
  height = 32,
  pattern = "bookshelf.1",
}

tile{
  layer = 0,
  x = 112,
  y = 32,
  width = 16,
  height = 32,
  pattern = "bookshelf.3",
}

tile{
  layer = 0,
  x = 96,
  y = 32,
  width = 16,
  height = 32,
  pattern = "bookshelf.2",
}

tile{
  layer = 0,
  x = 184,
  y = 152,
  width = 8,
  height = 8,
  pattern = "carpet.9",
  tileset = "dungeon/purple",
}

tile{
  layer = 0,
  x = 128,
  y = 96,
  width = 8,
  height = 8,
  pattern = "carpet.1",
  tileset = "dungeon/purple",
}

tile{
  layer = 0,
  x = 136,
  y = 96,
  width = 48,
  height = 8,
  pattern = "carpet.2",
  tileset = "dungeon/purple",
}

tile{
  layer = 0,
  x = 184,
  y = 104,
  width = 8,
  height = 48,
  pattern = "carpet.6",
  tileset = "dungeon/purple",
}

tile{
  layer = 0,
  x = 184,
  y = 96,
  width = 8,
  height = 8,
  pattern = "carpet.3",
  tileset = "dungeon/purple",
}

tile{
  layer = 0,
  x = 128,
  y = 152,
  width = 8,
  height = 8,
  pattern = "carpet.7",
  tileset = "dungeon/purple",
}

tile{
  layer = 0,
  x = 128,
  y = 104,
  width = 8,
  height = 48,
  pattern = "carpet.4",
  tileset = "dungeon/purple",
}

tile{
  layer = 0,
  x = 136,
  y = 152,
  width = 48,
  height = 8,
  pattern = "carpet.8",
  tileset = "dungeon/purple",
}

tile{
  layer = 0,
  x = 136,
  y = 104,
  width = 48,
  height = 48,
  pattern = "carpet.5",
  tileset = "dungeon/purple",
}

wall{
  layer = 0,
  x = 152,
  y = 216,
  width = 16,
  height = 16,
  stops_enemies = true,
  stops_blocks = true,
}

destination{
  name = "from_outside",
  layer = 0,
  x = 160,
  y = 221,
  direction = 1,
}

teletransporter{
  layer = 0,
  x = 152,
  y = 224,
  width = 16,
  height = 16,
  destination_map = "out/e2",
  destination = "from_potion_shop",
}

npc{
  name = "merchant",
  layer = 0,
  x = 160,
  y = 133,
  direction = 3,
  subtype = 1,
  sprite = "npc/alttp/priest",
}

tile{
  layer = 1,
  x = 112,
  y = 232,
  width = 96,
  height = 8,
  pattern = "door_cache.2-1",
}

tile{
  layer = 1,
  x = 144,
  y = 232,
  width = 32,
  height = 8,
  pattern = "door_top.2-1",
}

tile{
  layer = 1,
  x = 88,
  y = 216,
  width = 32,
  height = 24,
  pattern = "window.2-2",
}

tile{
  layer = 1,
  x = 200,
  y = 216,
  width = 32,
  height = 24,
  pattern = "window.2-2",
}

tile{
  layer = 2,
  x = 0,
  y = 0,
  width = 32,
  height = 240,
  pattern = "ceiling.2",
}

tile{
  layer = 2,
  x = 288,
  y = 0,
  width = 32,
  height = 240,
  pattern = "ceiling.2",
}

tile{
  layer = 2,
  x = 32,
  y = 0,
  width = 256,
  height = 32,
  pattern = "ceiling.2",
}

