properties{
  x = 0,
  y = 0,
  width = 1280,
  height = 480,
  min_layer = 0,
  max_layer = 2,
  tileset = "dungeon/dark_brown",
  music = "cave",
}

tile{
  layer = 0,
  x = 312,
  y = 72,
  width = 8,
  height = 96,
  pattern = "ceiling.2",
}

tile{
  layer = 0,
  x = 640,
  y = 280,
  width = 8,
  height = 160,
  pattern = "ceiling.2",
}

tile{
  layer = 0,
  x = 616,
  y = 328,
  width = 24,
  height = 64,
  pattern = "wall.4-3",
}

tile{
  layer = 0,
  x = 640,
  y = 296,
  width = 24,
  height = 128,
  pattern = "wall.3-3",
}

tile{
  layer = 0,
  x = 320,
  y = 40,
  width = 8,
  height = 160,
  pattern = "ceiling.2",
}

tile{
  layer = 0,
  x = 352,
  y = 232,
  width = 256,
  height = 8,
  pattern = "ceiling.2",
}

tile{
  layer = 0,
  x = 456,
  y = 240,
  width = 48,
  height = 24,
  pattern = "wall.1-3",
}

tile{
  layer = 0,
  x = 376,
  y = 216,
  width = 208,
  height = 24,
  pattern = "wall.2-3",
}

tile{
  layer = 0,
  x = 320,
  y = 56,
  width = 24,
  height = 128,
  pattern = "wall.3-3",
}

tile{
  layer = 0,
  x = 296,
  y = 88,
  width = 24,
  height = 64,
  pattern = "wall.4-3",
}

tile{
  layer = 0,
  x = 872,
  y = 280,
  width = 8,
  height = 160,
  pattern = "ceiling.2",
}

tile{
  layer = 0,
  x = 1208,
  y = 40,
  width = 8,
  height = 24,
  pattern = "ceiling.2",
}

tile{
  layer = 0,
  x = 1240,
  y = 72,
  width = 8,
  height = 208,
  pattern = "ceiling.2",
}

tile{
  layer = 0,
  x = 1240,
  y = 296,
  width = 8,
  height = 144,
  pattern = "ceiling.2",
}

tile{
  layer = 0,
  x = 1040,
  y = 296,
  width = 8,
  height = 144,
  pattern = "ceiling.2",
}

tile{
  layer = 0,
  x = 1040,
  y = 256,
  width = 8,
  height = 24,
  pattern = "ceiling.2",
}

tile{
  layer = 0,
  x = 992,
  y = 192,
  width = 8,
  height = 56,
  pattern = "ceiling.2",
}

tile{
  layer = 0,
  x = 904,
  y = 192,
  width = 8,
  height = 72,
  pattern = "ceiling.2",
}

tile{
  layer = 0,
  x = 672,
  y = 72,
  width = 8,
  height = 192,
  pattern = "ceiling.2",
}

tile{
  layer = 0,
  x = 704,
  y = 40,
  width = 8,
  height = 24,
  pattern = "ceiling.2",
}

tile{
  layer = 0,
  x = 704,
  y = 32,
  width = 512,
  height = 8,
  pattern = "ceiling.2",
}

tile{
  layer = 0,
  x = 672,
  y = 64,
  width = 32,
  height = 8,
  pattern = "ceiling.2",
}

tile{
  layer = 0,
  x = 1216,
  y = 64,
  width = 32,
  height = 8,
  pattern = "ceiling.2",
}

tile{
  layer = 0,
  x = 1216,
  y = 280,
  width = 32,
  height = 16,
  pattern = "ceiling.2",
}

tile{
  layer = 0,
  x = 1040,
  y = 440,
  width = 208,
  height = 8,
  pattern = "ceiling.2",
}

tile{
  layer = 0,
  x = 1040,
  y = 280,
  width = 32,
  height = 16,
  pattern = "ceiling.2",
}

tile{
  layer = 0,
  x = 992,
  y = 248,
  width = 48,
  height = 8,
  pattern = "ceiling.2",
}

tile{
  layer = 0,
  x = 912,
  y = 184,
  width = 80,
  height = 8,
  pattern = "ceiling.2",
}

tile{
  layer = 0,
  x = 848,
  y = 264,
  width = 64,
  height = 8,
  pattern = "ceiling.2",
}

tile{
  layer = 0,
  x = 848,
  y = 272,
  width = 32,
  height = 8,
  pattern = "ceiling.2",
}

tile{
  layer = 0,
  x = 640,
  y = 440,
  width = 240,
  height = 8,
  pattern = "ceiling.2",
}

tile{
  layer = 0,
  x = 672,
  y = 264,
  width = 32,
  height = 8,
  pattern = "ceiling.2",
}

tile{
  layer = 0,
  x = 640,
  y = 272,
  width = 64,
  height = 8,
  pattern = "ceiling.2",
}

tile{
  layer = 0,
  x = 632,
  y = 312,
  width = 8,
  height = 96,
  pattern = "ceiling.2",
}

tile{
  layer = 0,
  x = 432,
  y = 248,
  width = 8,
  height = 160,
  pattern = "ceiling.2",
}

tile{
  layer = 0,
  x = 520,
  y = 248,
  width = 8,
  height = 56,
  pattern = "ceiling.2",
}

tile{
  layer = 0,
  x = 528,
  y = 296,
  width = 112,
  height = 16,
  pattern = "ceiling.2",
}

tile{
  layer = 0,
  x = 432,
  y = 408,
  width = 208,
  height = 8,
  pattern = "ceiling.2",
}

tile{
  layer = 0,
  x = 352,
  y = 208,
  width = 8,
  height = 24,
  pattern = "ceiling.2",
}

tile{
  layer = 0,
  x = 600,
  y = 208,
  width = 8,
  height = 24,
  pattern = "ceiling.2",
}

tile{
  layer = 0,
  x = 632,
  y = 40,
  width = 8,
  height = 160,
  pattern = "ceiling.2",
}

tile{
  layer = 0,
  x = 600,
  y = 8,
  width = 8,
  height = 24,
  pattern = "ceiling.2",
}

tile{
  layer = 0,
  x = 352,
  y = 8,
  width = 8,
  height = 24,
  pattern = "ceiling.2",
}

tile{
  layer = 0,
  x = 320,
  y = 200,
  width = 32,
  height = 16,
  pattern = "ceiling.2",
}

tile{
  layer = 0,
  x = 608,
  y = 200,
  width = 32,
  height = 8,
  pattern = "ceiling.2",
}

tile{
  layer = 0,
  x = 608,
  y = 32,
  width = 32,
  height = 8,
  pattern = "ceiling.2",
}

tile{
  layer = 0,
  x = 352,
  y = 0,
  width = 256,
  height = 8,
  pattern = "ceiling.2",
}

tile{
  layer = 0,
  x = 320,
  y = 32,
  width = 32,
  height = 8,
  pattern = "ceiling.2",
}

tile{
  layer = 0,
  x = 248,
  y = 176,
  width = 8,
  height = 24,
  pattern = "ceiling.2",
}

tile{
  layer = 0,
  x = 64,
  y = 40,
  width = 8,
  height = 160,
  pattern = "ceiling.2",
}

tile{
  layer = 0,
  x = 248,
  y = 40,
  width = 8,
  height = 24,
  pattern = "ceiling.2",
}

tile{
  layer = 0,
  x = 256,
  y = 64,
  width = 64,
  height = 8,
  pattern = "ceiling.2",
}

tile{
  layer = 0,
  x = 256,
  y = 168,
  width = 64,
  height = 8,
  pattern = "ceiling.2",
}

tile{
  layer = 0,
  x = 64,
  y = 200,
  width = 192,
  height = 8,
  pattern = "ceiling.2",
}

tile{
  layer = 0,
  x = 64,
  y = 32,
  width = 192,
  height = 8,
  pattern = "ceiling.2",
}

tile{
  layer = 0,
  x = 88,
  y = 56,
  width = 144,
  height = 128,
  pattern = "floor.16-1",
}

tile{
  layer = 0,
  x = 344,
  y = 56,
  width = 272,
  height = 128,
  pattern = "floor.16-1",
}

tile{
  layer = 0,
  x = 232,
  y = 88,
  width = 64,
  height = 64,
  pattern = "floor.16-1",
}

tile{
  layer = 0,
  x = 1096,
  y = 264,
  width = 96,
  height = 48,
  pattern = "floor.16-1",
}

tile{
  layer = 0,
  x = 1064,
  y = 232,
  width = 160,
  height = 32,
  pattern = "floor.16-1",
}

tile{
  layer = 0,
  x = 1016,
  y = 168,
  width = 208,
  height = 64,
  pattern = "floor.16-1",
}

tile{
  layer = 0,
  x = 728,
  y = 56,
  width = 464,
  height = 32,
  pattern = "floor.16-1",
}

tile{
  layer = 0,
  x = 696,
  y = 88,
  width = 528,
  height = 80,
  pattern = "floor.16-1",
}

tile{
  layer = 0,
  x = 696,
  y = 168,
  width = 192,
  height = 80,
  pattern = "floor.16-1",
}

tile{
  layer = 0,
  x = 728,
  y = 248,
  width = 96,
  height = 48,
  pattern = "floor.16-1",
}

tile{
  layer = 0,
  x = 664,
  y = 296,
  width = 192,
  height = 128,
  pattern = "floor.16-1",
}

tile{
  layer = 0,
  x = 1064,
  y = 312,
  width = 160,
  height = 112,
  pattern = "floor.16-1",
}

tile{
  layer = 0,
  x = 472,
  y = 248,
  width = 16,
  height = 16,
  pattern = "door_blast.1",
}

tile{
  layer = 0,
  x = 464,
  y = 248,
  width = 8,
  height = 16,
  pattern = "door.1.support.1-2",
}

tile{
  layer = 0,
  x = 488,
  y = 248,
  width = 8,
  height = 16,
  pattern = "door.1.support.2-2",
}

tile{
  layer = 0,
  x = 472,
  y = 216,
  width = 16,
  height = 16,
  pattern = "door_blast.2",
}

tile{
  layer = 0,
  x = 488,
  y = 216,
  width = 8,
  height = 16,
  pattern = "door.2.support.2-2",
}

tile{
  layer = 0,
  x = 464,
  y = 216,
  width = 8,
  height = 16,
  pattern = "door.2.support.1-2",
}

tile{
  layer = 0,
  x = 472,
  y = 232,
  width = 16,
  height = 16,
  pattern = "floor.16-1",
}

tile{
  layer = 0,
  x = 296,
  y = 112,
  width = 16,
  height = 16,
  pattern = "door_blast.4",
}

tile{
  layer = 0,
  x = 328,
  y = 112,
  width = 16,
  height = 16,
  pattern = "door_blast.3",
}

tile{
  layer = 0,
  x = 296,
  y = 128,
  width = 16,
  height = 8,
  pattern = "door.4.support.2-2",
}

tile{
  layer = 0,
  x = 296,
  y = 104,
  width = 16,
  height = 8,
  pattern = "door.4.support.1-2",
}

tile{
  layer = 0,
  x = 328,
  y = 104,
  width = 16,
  height = 8,
  pattern = "door.3.support.1-2",
}

tile{
  layer = 0,
  x = 328,
  y = 128,
  width = 16,
  height = 8,
  pattern = "door.3.support.2-2",
}

tile{
  layer = 0,
  x = 312,
  y = 112,
  width = 16,
  height = 16,
  pattern = "floor.16-1",
}

tile{
  layer = 0,
  x = 616,
  y = 352,
  width = 16,
  height = 16,
  pattern = "door_blast.4",
}

tile{
  layer = 0,
  x = 648,
  y = 352,
  width = 16,
  height = 16,
  pattern = "door_blast.3",
}

tile{
  layer = 0,
  x = 616,
  y = 368,
  width = 16,
  height = 8,
  pattern = "door.4.support.2-2",
}

tile{
  layer = 0,
  x = 616,
  y = 344,
  width = 16,
  height = 8,
  pattern = "door.4.support.1-2",
}

tile{
  layer = 0,
  x = 648,
  y = 344,
  width = 16,
  height = 8,
  pattern = "door.3.support.1-2",
}

tile{
  layer = 0,
  x = 648,
  y = 368,
  width = 16,
  height = 8,
  pattern = "door.3.support.2-2",
}

tile{
  layer = 0,
  x = 632,
  y = 352,
  width = 16,
  height = 16,
  pattern = "floor.16-1",
}

tile{
  layer = 0,
  x = 728,
  y = 120,
  width = 128,
  height = 96,
  pattern = "deep_water",
  tileset = "extra/dungeon",
}

tile{
  layer = 0,
  x = 704,
  y = 96,
  width = 48,
  height = 16,
  pattern = "spikes",
}

tile{
  layer = 0,
  x = 704,
  y = 224,
  width = 48,
  height = 16,
  pattern = "spikes",
}

tile{
  layer = 0,
  x = 800,
  y = 224,
  width = 80,
  height = 16,
  pattern = "spikes",
}

tile{
  layer = 0,
  x = 736,
  y = 64,
  width = 448,
  height = 16,
  pattern = "spikes",
}

tile{
  layer = 0,
  x = 864,
  y = 144,
  width = 176,
  height = 16,
  pattern = "spikes",
}

tile{
  layer = 0,
  x = 1024,
  y = 208,
  width = 64,
  height = 16,
  pattern = "spikes",
}

tile{
  layer = 0,
  x = 1072,
  y = 240,
  width = 48,
  height = 16,
  pattern = "spikes",
}

tile{
  layer = 0,
  x = 1168,
  y = 240,
  width = 48,
  height = 16,
  pattern = "spikes",
}

tile{
  layer = 0,
  x = 1168,
  y = 96,
  width = 48,
  height = 16,
  pattern = "spikes",
}

tile{
  layer = 0,
  x = 736,
  y = 80,
  width = 16,
  height = 16,
  pattern = "spikes",
}

tile{
  layer = 0,
  x = 704,
  y = 112,
  width = 16,
  height = 112,
  pattern = "spikes",
}

tile{
  layer = 0,
  x = 736,
  y = 240,
  width = 16,
  height = 64,
  pattern = "spikes",
}

tile{
  layer = 0,
  x = 800,
  y = 240,
  width = 16,
  height = 64,
  pattern = "spikes",
}

tile{
  layer = 0,
  x = 864,
  y = 160,
  width = 16,
  height = 64,
  pattern = "spikes",
}

tile{
  layer = 0,
  x = 1024,
  y = 160,
  width = 16,
  height = 48,
  pattern = "spikes",
}

tile{
  layer = 0,
  x = 1072,
  y = 224,
  width = 16,
  height = 16,
  pattern = "spikes",
}

tile{
  layer = 0,
  x = 1104,
  y = 256,
  width = 16,
  height = 64,
  pattern = "spikes",
}

tile{
  layer = 0,
  x = 1168,
  y = 256,
  width = 16,
  height = 64,
  pattern = "spikes",
}

tile{
  layer = 0,
  x = 1200,
  y = 112,
  width = 16,
  height = 128,
  pattern = "spikes",
}

tile{
  layer = 0,
  x = 1168,
  y = 80,
  width = 16,
  height = 16,
  pattern = "spikes",
}

tile{
  layer = 0,
  x = 376,
  y = 24,
  width = 208,
  height = 32,
  pattern = "floor.16-1",
}

tile{
  layer = 0,
  x = 376,
  y = 184,
  width = 208,
  height = 32,
  pattern = "floor.16-1",
}

tile{
  layer = 0,
  x = 456,
  y = 264,
  width = 48,
  height = 64,
  pattern = "floor.16-1",
}

tile{
  layer = 0,
  x = 456,
  y = 328,
  width = 160,
  height = 64,
  pattern = "floor.16-1",
}

tile{
  layer = 0,
  x = 376,
  y = 24,
  width = 208,
  height = 8,
  pattern = "wall_border.1-3",
}

tile{
  layer = 0,
  x = 376,
  y = 24,
  width = 8,
  height = 32,
  pattern = "wall_border.3-3",
}

tile{
  layer = 0,
  x = 576,
  y = 24,
  width = 8,
  height = 32,
  pattern = "wall_border.4-3",
}

tile{
  layer = 0,
  x = 88,
  y = 56,
  width = 144,
  height = 8,
  pattern = "wall_border.1-3",
}

tile{
  layer = 0,
  x = 344,
  y = 56,
  width = 32,
  height = 8,
  pattern = "wall_border.1-3",
}

tile{
  layer = 0,
  x = 584,
  y = 56,
  width = 32,
  height = 8,
  pattern = "wall_border.1-3",
}

tile{
  layer = 0,
  x = 728,
  y = 56,
  width = 464,
  height = 8,
  pattern = "wall_border.1-3",
}

tile{
  layer = 0,
  x = 88,
  y = 56,
  width = 8,
  height = 128,
  pattern = "wall_border.3-3",
}

tile{
  layer = 0,
  x = 224,
  y = 56,
  width = 8,
  height = 32,
  pattern = "wall_border.4-3",
}

tile{
  layer = 0,
  x = 344,
  y = 56,
  width = 8,
  height = 128,
  pattern = "wall_border.3-3",
}

tile{
  layer = 0,
  x = 608,
  y = 56,
  width = 8,
  height = 128,
  pattern = "wall_border.4-3",
}

tile{
  layer = 0,
  x = 728,
  y = 56,
  width = 8,
  height = 32,
  pattern = "wall_border.3-3",
}

tile{
  layer = 0,
  x = 1184,
  y = 56,
  width = 8,
  height = 32,
  pattern = "wall_border.4-3",
}

tile{
  layer = 0,
  x = 232,
  y = 88,
  width = 64,
  height = 8,
  pattern = "wall_border.1-3",
}

tile{
  layer = 0,
  x = 696,
  y = 88,
  width = 32,
  height = 8,
  pattern = "wall_border.1-3",
}

tile{
  layer = 0,
  x = 1192,
  y = 88,
  width = 32,
  height = 8,
  pattern = "wall_border.1-3",
}

tile{
  layer = 0,
  x = 288,
  y = 88,
  width = 8,
  height = 64,
  pattern = "wall_border.4-3",
}

tile{
  layer = 0,
  x = 696,
  y = 88,
  width = 8,
  height = 160,
  pattern = "wall_border.3-3",
}

tile{
  layer = 0,
  x = 1216,
  y = 88,
  width = 8,
  height = 176,
  pattern = "wall_border.4-3",
}

tile{
  layer = 0,
  x = 232,
  y = 144,
  width = 64,
  height = 8,
  pattern = "wall_border.2-3",
}

tile{
  layer = 0,
  x = 224,
  y = 152,
  width = 8,
  height = 32,
  pattern = "wall_border.4-3",
}

tile{
  layer = 0,
  x = 888,
  y = 160,
  width = 128,
  height = 8,
  pattern = "wall_border.2-3",
}

tile{
  layer = 0,
  x = 880,
  y = 168,
  width = 8,
  height = 80,
  pattern = "wall_border.4-3",
}

tile{
  layer = 0,
  x = 1016,
  y = 168,
  width = 8,
  height = 64,
  pattern = "wall_border.3-3",
}

tile{
  layer = 0,
  x = 88,
  y = 176,
  width = 144,
  height = 8,
  pattern = "wall_border.2-3",
}

tile{
  layer = 0,
  x = 344,
  y = 176,
  width = 32,
  height = 8,
  pattern = "wall_border.2-3",
}

tile{
  layer = 0,
  x = 584,
  y = 176,
  width = 32,
  height = 8,
  pattern = "wall_border.2-3",
}

tile{
  layer = 0,
  x = 376,
  y = 184,
  width = 8,
  height = 32,
  pattern = "wall_border.3-3",
}

tile{
  layer = 0,
  x = 576,
  y = 184,
  width = 8,
  height = 32,
  pattern = "wall_border.4-3",
}

tile{
  layer = 0,
  x = 376,
  y = 208,
  width = 208,
  height = 8,
  pattern = "wall_border.2-3",
}

tile{
  layer = 0,
  x = 1016,
  y = 224,
  width = 48,
  height = 8,
  pattern = "wall_border.2-3",
}

tile{
  layer = 0,
  x = 1064,
  y = 232,
  width = 8,
  height = 32,
  pattern = "wall_border.3-3",
}

tile{
  layer = 0,
  x = 696,
  y = 240,
  width = 32,
  height = 8,
  pattern = "wall_border.2-3",
}

tile{
  layer = 0,
  x = 824,
  y = 240,
  width = 64,
  height = 8,
  pattern = "wall_border.2-3",
}

tile{
  layer = 0,
  x = 728,
  y = 248,
  width = 8,
  height = 48,
  pattern = "wall_border.3-3",
}

tile{
  layer = 0,
  x = 816,
  y = 248,
  width = 8,
  height = 48,
  pattern = "wall_border.4-3",
}

tile{
  layer = 0,
  x = 1064,
  y = 256,
  width = 32,
  height = 8,
  pattern = "wall_border.2-3",
}

tile{
  layer = 0,
  x = 1192,
  y = 256,
  width = 32,
  height = 8,
  pattern = "wall_border.2-3",
}

tile{
  layer = 0,
  x = 456,
  y = 264,
  width = 48,
  height = 8,
  pattern = "wall_border.1-3",
}

tile{
  layer = 0,
  x = 1096,
  y = 264,
  width = 8,
  height = 48,
  pattern = "wall_border.3-3",
}

tile{
  layer = 0,
  x = 1184,
  y = 264,
  width = 8,
  height = 48,
  pattern = "wall_border.4-3",
}

tile{
  layer = 0,
  x = 456,
  y = 264,
  width = 8,
  height = 128,
  pattern = "wall_border.3-3",
}

tile{
  layer = 0,
  x = 496,
  y = 264,
  width = 8,
  height = 64,
  pattern = "wall_border.4-3",
}

tile{
  layer = 0,
  x = 664,
  y = 296,
  width = 64,
  height = 8,
  pattern = "wall_border.1-3",
}

tile{
  layer = 0,
  x = 824,
  y = 296,
  width = 32,
  height = 8,
  pattern = "wall_border.1-3",
}

tile{
  layer = 0,
  x = 664,
  y = 296,
  width = 8,
  height = 128,
  pattern = "wall_border.3-3",
}

tile{
  layer = 0,
  x = 848,
  y = 296,
  width = 8,
  height = 128,
  pattern = "wall_border.4-3",
}

tile{
  layer = 0,
  x = 1064,
  y = 312,
  width = 32,
  height = 8,
  pattern = "wall_border.1-3",
}

tile{
  layer = 0,
  x = 1192,
  y = 312,
  width = 32,
  height = 8,
  pattern = "wall_border.1-3",
}

tile{
  layer = 0,
  x = 1064,
  y = 312,
  width = 8,
  height = 112,
  pattern = "wall_border.3-3",
}

tile{
  layer = 0,
  x = 1216,
  y = 312,
  width = 8,
  height = 112,
  pattern = "wall_border.4-3",
}

tile{
  layer = 0,
  x = 504,
  y = 328,
  width = 112,
  height = 8,
  pattern = "wall_border.1-3",
}

tile{
  layer = 0,
  x = 608,
  y = 328,
  width = 8,
  height = 64,
  pattern = "wall_border.4-3",
}

tile{
  layer = 0,
  x = 456,
  y = 384,
  width = 160,
  height = 8,
  pattern = "wall_border.2-3",
}

tile{
  layer = 0,
  x = 664,
  y = 416,
  width = 192,
  height = 8,
  pattern = "wall_border.2-3",
}

tile{
  layer = 0,
  x = 1064,
  y = 416,
  width = 160,
  height = 8,
  pattern = "wall_border.2-3",
}

tile{
  layer = 0,
  x = 376,
  y = 24,
  width = 8,
  height = 8,
  pattern = "wall_border.corner.1-3",
}

tile{
  layer = 0,
  x = 576,
  y = 24,
  width = 8,
  height = 8,
  pattern = "wall_border.corner.2-3",
}

tile{
  layer = 0,
  x = 88,
  y = 56,
  width = 8,
  height = 8,
  pattern = "wall_border.corner.1-3",
}

tile{
  layer = 0,
  x = 224,
  y = 56,
  width = 8,
  height = 8,
  pattern = "wall_border.corner.2-3",
}

tile{
  layer = 0,
  x = 344,
  y = 56,
  width = 8,
  height = 8,
  pattern = "wall_border.corner.1-3",
}

tile{
  layer = 0,
  x = 376,
  y = 56,
  width = 8,
  height = 8,
  pattern = "wall_border.corner_reverse.1-3",
}

tile{
  layer = 0,
  x = 576,
  y = 56,
  width = 8,
  height = 8,
  pattern = "wall_border.corner_reverse.2-3",
}

tile{
  layer = 0,
  x = 608,
  y = 56,
  width = 8,
  height = 8,
  pattern = "wall_border.corner.2-3",
}

tile{
  layer = 0,
  x = 728,
  y = 56,
  width = 8,
  height = 8,
  pattern = "wall_border.corner.1-3",
}

tile{
  layer = 0,
  x = 1184,
  y = 56,
  width = 8,
  height = 8,
  pattern = "wall_border.corner.2-3",
}

tile{
  layer = 0,
  x = 224,
  y = 88,
  width = 8,
  height = 8,
  pattern = "wall_border.corner_reverse.2-3",
}

tile{
  layer = 0,
  x = 288,
  y = 88,
  width = 8,
  height = 8,
  pattern = "wall_border.corner.2-3",
}

tile{
  layer = 0,
  x = 696,
  y = 88,
  width = 8,
  height = 8,
  pattern = "wall_border.corner.1-3",
}

tile{
  layer = 0,
  x = 728,
  y = 88,
  width = 8,
  height = 8,
  pattern = "wall_border.corner_reverse.1-3",
}

tile{
  layer = 0,
  x = 1184,
  y = 88,
  width = 8,
  height = 8,
  pattern = "wall_border.corner_reverse.2-3",
}

tile{
  layer = 0,
  x = 1216,
  y = 88,
  width = 8,
  height = 8,
  pattern = "wall_border.corner.2-3",
}

tile{
  layer = 0,
  x = 224,
  y = 144,
  width = 8,
  height = 8,
  pattern = "wall_border.corner_reverse.4-3",
}

tile{
  layer = 0,
  x = 288,
  y = 144,
  width = 8,
  height = 8,
  pattern = "wall_border.corner.4-3",
}

tile{
  layer = 0,
  x = 880,
  y = 160,
  width = 8,
  height = 8,
  pattern = "wall_border.corner_reverse.4-3",
}

tile{
  layer = 0,
  x = 1016,
  y = 160,
  width = 8,
  height = 8,
  pattern = "wall_border.corner_reverse.3-3",
}

tile{
  layer = 0,
  x = 88,
  y = 176,
  width = 8,
  height = 8,
  pattern = "wall_border.corner.3-3",
}

tile{
  layer = 0,
  x = 224,
  y = 176,
  width = 8,
  height = 8,
  pattern = "wall_border.corner.4-3",
}

tile{
  layer = 0,
  x = 344,
  y = 176,
  width = 8,
  height = 8,
  pattern = "wall_border.corner.3-3",
}

tile{
  layer = 0,
  x = 376,
  y = 176,
  width = 8,
  height = 8,
  pattern = "wall_border.corner_reverse.3-3",
}

tile{
  layer = 0,
  x = 576,
  y = 176,
  width = 8,
  height = 8,
  pattern = "wall_border.corner_reverse.4-3",
}

tile{
  layer = 0,
  x = 608,
  y = 176,
  width = 8,
  height = 8,
  pattern = "wall_border.corner.4-3",
}

tile{
  layer = 0,
  x = 376,
  y = 208,
  width = 8,
  height = 8,
  pattern = "wall_border.corner.3-3",
}

tile{
  layer = 0,
  x = 576,
  y = 208,
  width = 8,
  height = 8,
  pattern = "wall_border.corner.4-3",
}

tile{
  layer = 0,
  x = 1016,
  y = 224,
  width = 8,
  height = 8,
  pattern = "wall_border.corner.3-3",
}

tile{
  layer = 0,
  x = 1064,
  y = 224,
  width = 8,
  height = 8,
  pattern = "wall_border.corner_reverse.3-3",
}

tile{
  layer = 0,
  x = 696,
  y = 240,
  width = 8,
  height = 8,
  pattern = "wall_border.corner.3-3",
}

tile{
  layer = 0,
  x = 728,
  y = 240,
  width = 8,
  height = 8,
  pattern = "wall_border.corner_reverse.3-3",
}

tile{
  layer = 0,
  x = 816,
  y = 240,
  width = 8,
  height = 8,
  pattern = "wall_border.corner_reverse.4-3",
}

tile{
  layer = 0,
  x = 880,
  y = 240,
  width = 8,
  height = 8,
  pattern = "wall_border.corner.4-3",
}

tile{
  layer = 0,
  x = 1064,
  y = 256,
  width = 8,
  height = 8,
  pattern = "wall_border.corner.3-3",
}

tile{
  layer = 0,
  x = 1096,
  y = 256,
  width = 8,
  height = 8,
  pattern = "wall_border.corner_reverse.3-3",
}

tile{
  layer = 0,
  x = 1184,
  y = 256,
  width = 8,
  height = 8,
  pattern = "wall_border.corner_reverse.4-3",
}

tile{
  layer = 0,
  x = 1216,
  y = 256,
  width = 8,
  height = 8,
  pattern = "wall_border.corner.4-3",
}

tile{
  layer = 0,
  x = 456,
  y = 264,
  width = 8,
  height = 8,
  pattern = "wall_border.corner.1-3",
}

tile{
  layer = 0,
  x = 496,
  y = 264,
  width = 8,
  height = 8,
  pattern = "wall_border.corner.2-3",
}

tile{
  layer = 0,
  x = 664,
  y = 296,
  width = 8,
  height = 8,
  pattern = "wall_border.corner.1-3",
}

tile{
  layer = 0,
  x = 728,
  y = 296,
  width = 8,
  height = 8,
  pattern = "wall_border.corner_reverse.1-3",
}

tile{
  layer = 0,
  x = 816,
  y = 296,
  width = 8,
  height = 8,
  pattern = "wall_border.corner_reverse.2-3",
}

tile{
  layer = 0,
  x = 848,
  y = 296,
  width = 8,
  height = 8,
  pattern = "wall_border.corner.2-3",
}

tile{
  layer = 0,
  x = 1064,
  y = 312,
  width = 8,
  height = 8,
  pattern = "wall_border.corner.1-3",
}

tile{
  layer = 0,
  x = 1096,
  y = 312,
  width = 8,
  height = 8,
  pattern = "wall_border.corner_reverse.1-3",
}

tile{
  layer = 0,
  x = 1184,
  y = 312,
  width = 8,
  height = 8,
  pattern = "wall_border.corner_reverse.2-3",
}

tile{
  layer = 0,
  x = 1216,
  y = 312,
  width = 8,
  height = 8,
  pattern = "wall_border.corner.2-3",
}

tile{
  layer = 0,
  x = 496,
  y = 328,
  width = 8,
  height = 8,
  pattern = "wall_border.corner_reverse.2-3",
}

tile{
  layer = 0,
  x = 608,
  y = 328,
  width = 8,
  height = 8,
  pattern = "wall_border.corner.2-3",
}

tile{
  layer = 0,
  x = 456,
  y = 384,
  width = 8,
  height = 8,
  pattern = "wall_border.corner.3-3",
}

tile{
  layer = 0,
  x = 608,
  y = 384,
  width = 8,
  height = 8,
  pattern = "wall_border.corner.4-3",
}

tile{
  layer = 0,
  x = 664,
  y = 416,
  width = 8,
  height = 8,
  pattern = "wall_border.corner.3-3",
}

tile{
  layer = 0,
  x = 848,
  y = 416,
  width = 8,
  height = 8,
  pattern = "wall_border.corner.4-3",
}

tile{
  layer = 0,
  x = 1064,
  y = 416,
  width = 8,
  height = 8,
  pattern = "wall_border.corner.3-3",
}

tile{
  layer = 0,
  x = 1216,
  y = 416,
  width = 8,
  height = 8,
  pattern = "wall_border.corner.4-3",
}

tile{
  layer = 0,
  x = 376,
  y = 0,
  width = 208,
  height = 24,
  pattern = "wall.1-3",
}

tile{
  layer = 0,
  x = 352,
  y = 24,
  width = 24,
  height = 16,
  pattern = "wall.3-3",
}

tile{
  layer = 0,
  x = 584,
  y = 24,
  width = 24,
  height = 16,
  pattern = "wall.4-3",
}

tile{
  layer = 0,
  x = 88,
  y = 32,
  width = 144,
  height = 24,
  pattern = "wall.1-3",
}

tile{
  layer = 0,
  x = 344,
  y = 32,
  width = 16,
  height = 24,
  pattern = "wall.1-3",
}

tile{
  layer = 0,
  x = 600,
  y = 32,
  width = 16,
  height = 24,
  pattern = "wall.1-3",
}

tile{
  layer = 0,
  x = 728,
  y = 32,
  width = 464,
  height = 24,
  pattern = "wall.1-3",
}

tile{
  layer = 0,
  x = 64,
  y = 56,
  width = 24,
  height = 128,
  pattern = "wall.3-3",
}

tile{
  layer = 0,
  x = 232,
  y = 56,
  width = 24,
  height = 16,
  pattern = "wall.4-3",
}

tile{
  layer = 0,
  x = 616,
  y = 56,
  width = 24,
  height = 128,
  pattern = "wall.4-3",
}

tile{
  layer = 0,
  x = 704,
  y = 56,
  width = 24,
  height = 16,
  pattern = "wall.3-3",
}

tile{
  layer = 0,
  x = 1192,
  y = 56,
  width = 24,
  height = 16,
  pattern = "wall.4-3",
}

tile{
  layer = 0,
  x = 248,
  y = 64,
  width = 48,
  height = 24,
  pattern = "wall.1-3",
}

tile{
  layer = 0,
  x = 696,
  y = 64,
  width = 16,
  height = 24,
  pattern = "wall.1-3",
}

tile{
  layer = 0,
  x = 1208,
  y = 64,
  width = 16,
  height = 24,
  pattern = "wall.1-3",
}

tile{
  layer = 0,
  x = 672,
  y = 88,
  width = 24,
  height = 160,
  pattern = "wall.3-3",
}

tile{
  layer = 0,
  x = 1224,
  y = 88,
  width = 24,
  height = 176,
  pattern = "wall.4-3",
}

tile{
  layer = 0,
  x = 248,
  y = 152,
  width = 48,
  height = 24,
  pattern = "wall.2-3",
}

tile{
  layer = 0,
  x = 232,
  y = 168,
  width = 24,
  height = 16,
  pattern = "wall.4-3",
}

tile{
  layer = 0,
  x = 912,
  y = 168,
  width = 80,
  height = 24,
  pattern = "wall.2-3",
}

tile{
  layer = 0,
  x = 888,
  y = 184,
  width = 24,
  height = 64,
  pattern = "wall.4-3",
}

tile{
  layer = 0,
  x = 992,
  y = 184,
  width = 24,
  height = 48,
  pattern = "wall.3-3",
}

tile{
  layer = 0,
  x = 88,
  y = 184,
  width = 144,
  height = 24,
  pattern = "wall.2-3",
}

tile{
  layer = 0,
  x = 344,
  y = 184,
  width = 16,
  height = 24,
  pattern = "wall.2-3",
}

tile{
  layer = 0,
  x = 600,
  y = 184,
  width = 16,
  height = 24,
  pattern = "wall.2-3",
}

tile{
  layer = 0,
  x = 352,
  y = 200,
  width = 24,
  height = 16,
  pattern = "wall.3-3",
}

tile{
  layer = 0,
  x = 584,
  y = 200,
  width = 24,
  height = 16,
  pattern = "wall.4-3",
}

tile{
  layer = 0,
  x = 1016,
  y = 232,
  width = 32,
  height = 24,
  pattern = "wall.2-3",
}

tile{
  layer = 0,
  x = 1040,
  y = 248,
  width = 24,
  height = 16,
  pattern = "wall.3-3",
}

tile{
  layer = 0,
  x = 696,
  y = 248,
  width = 16,
  height = 24,
  pattern = "wall.2-3",
}

tile{
  layer = 0,
  x = 840,
  y = 248,
  width = 48,
  height = 24,
  pattern = "wall.2-3",
}

tile{
  layer = 0,
  x = 432,
  y = 264,
  width = 24,
  height = 128,
  pattern = "wall.3-3",
}

tile{
  layer = 0,
  x = 504,
  y = 264,
  width = 24,
  height = 48,
  pattern = "wall.4-3",
}

tile{
  layer = 0,
  x = 1064,
  y = 264,
  width = 16,
  height = 24,
  pattern = "wall.2-3",
}

tile{
  layer = 0,
  x = 1208,
  y = 264,
  width = 16,
  height = 24,
  pattern = "wall.2-3",
}

tile{
  layer = 0,
  x = 664,
  y = 272,
  width = 48,
  height = 24,
  pattern = "wall.1-3",
}

tile{
  layer = 0,
  x = 840,
  y = 272,
  width = 16,
  height = 24,
  pattern = "wall.1-3",
}

tile{
  layer = 0,
  x = 856,
  y = 296,
  width = 24,
  height = 128,
  pattern = "wall.4-3",
}

tile{
  layer = 0,
  x = 1064,
  y = 288,
  width = 16,
  height = 24,
  pattern = "wall.1-3",
}

tile{
  layer = 0,
  x = 1208,
  y = 288,
  width = 16,
  height = 24,
  pattern = "wall.1-3",
}

tile{
  layer = 0,
  x = 1040,
  y = 312,
  width = 24,
  height = 112,
  pattern = "wall.3-3",
}

tile{
  layer = 0,
  x = 1224,
  y = 312,
  width = 24,
  height = 112,
  pattern = "wall.4-3",
}

tile{
  layer = 0,
  x = 520,
  y = 304,
  width = 96,
  height = 24,
  pattern = "wall.1-3",
}

tile{
  layer = 0,
  x = 456,
  y = 392,
  width = 160,
  height = 24,
  pattern = "wall.2-3",
}

tile{
  layer = 0,
  x = 664,
  y = 424,
  width = 192,
  height = 24,
  pattern = "wall.2-3",
}

tile{
  layer = 0,
  x = 1064,
  y = 424,
  width = 160,
  height = 24,
  pattern = "wall.2-3",
}

tile{
  layer = 0,
  x = 352,
  y = 0,
  width = 24,
  height = 24,
  pattern = "wall.corner.1-3",
}

tile{
  layer = 0,
  x = 584,
  y = 0,
  width = 24,
  height = 24,
  pattern = "wall.corner.2-3",
}

tile{
  layer = 0,
  x = 64,
  y = 32,
  width = 24,
  height = 24,
  pattern = "wall.corner.1-3",
}

tile{
  layer = 0,
  x = 232,
  y = 32,
  width = 24,
  height = 24,
  pattern = "wall.corner.2-3",
}

tile{
  layer = 0,
  x = 320,
  y = 32,
  width = 24,
  height = 24,
  pattern = "wall.corner.1-3",
}

tile{
  layer = 0,
  x = 352,
  y = 32,
  width = 24,
  height = 24,
  pattern = "wall.corner_reverse.1-3b",
}

tile{
  layer = 0,
  x = 584,
  y = 32,
  width = 24,
  height = 24,
  pattern = "wall.corner_reverse.2-3b",
}

tile{
  layer = 0,
  x = 616,
  y = 32,
  width = 24,
  height = 24,
  pattern = "wall.corner.2-3",
}

tile{
  layer = 0,
  x = 704,
  y = 32,
  width = 24,
  height = 24,
  pattern = "wall.corner.1-3",
}

tile{
  layer = 0,
  x = 1192,
  y = 32,
  width = 24,
  height = 24,
  pattern = "wall.corner.2-3",
}

tile{
  layer = 0,
  x = 232,
  y = 64,
  width = 24,
  height = 24,
  pattern = "wall.corner_reverse.2-3b",
}

tile{
  layer = 0,
  x = 296,
  y = 64,
  width = 24,
  height = 24,
  pattern = "wall.corner.2-3",
}

tile{
  layer = 0,
  x = 672,
  y = 64,
  width = 24,
  height = 24,
  pattern = "wall.corner.1-3",
}

tile{
  layer = 0,
  x = 704,
  y = 64,
  width = 24,
  height = 24,
  pattern = "wall.corner_reverse.1-3b",
}

tile{
  layer = 0,
  x = 1192,
  y = 64,
  width = 24,
  height = 24,
  pattern = "wall.corner_reverse.2-3b",
}

tile{
  layer = 0,
  x = 1224,
  y = 64,
  width = 24,
  height = 24,
  pattern = "wall.corner.2-3",
}

tile{
  layer = 0,
  x = 232,
  y = 152,
  width = 24,
  height = 24,
  pattern = "wall.corner_reverse.4-3b",
}

tile{
  layer = 0,
  x = 296,
  y = 152,
  width = 24,
  height = 24,
  pattern = "wall.corner.4-3",
}

tile{
  layer = 0,
  x = 888,
  y = 168,
  width = 24,
  height = 24,
  pattern = "wall.corner_reverse.4-3b",
}

tile{
  layer = 0,
  x = 992,
  y = 168,
  width = 24,
  height = 24,
  pattern = "wall.corner_reverse.3-3b",
}

tile{
  layer = 0,
  x = 64,
  y = 184,
  width = 24,
  height = 24,
  pattern = "wall.corner.3-3",
}

tile{
  layer = 0,
  x = 232,
  y = 184,
  width = 24,
  height = 24,
  pattern = "wall.corner.4-3",
}

tile{
  layer = 0,
  x = 320,
  y = 184,
  width = 24,
  height = 24,
  pattern = "wall.corner.3-3",
}

tile{
  layer = 0,
  x = 352,
  y = 184,
  width = 24,
  height = 24,
  pattern = "wall.corner_reverse.3-3b",
}

tile{
  layer = 0,
  x = 584,
  y = 184,
  width = 24,
  height = 24,
  pattern = "wall.corner_reverse.4-3b",
}

tile{
  layer = 0,
  x = 616,
  y = 184,
  width = 24,
  height = 24,
  pattern = "wall.corner.4-3",
}

tile{
  layer = 0,
  x = 352,
  y = 216,
  width = 24,
  height = 24,
  pattern = "wall.corner.3-3",
}

tile{
  layer = 0,
  x = 584,
  y = 216,
  width = 24,
  height = 24,
  pattern = "wall.corner.4-3",
}

tile{
  layer = 0,
  x = 992,
  y = 232,
  width = 24,
  height = 24,
  pattern = "wall.corner.3-3",
}

tile{
  layer = 0,
  x = 1040,
  y = 232,
  width = 24,
  height = 24,
  pattern = "wall.corner_reverse.3-3b",
}

tile{
  layer = 0,
  x = 672,
  y = 248,
  width = 24,
  height = 24,
  pattern = "wall.corner.3-3",
}

tile{
  layer = 0,
  x = 704,
  y = 248,
  width = 24,
  height = 24,
  pattern = "wall.corner_reverse.3-3b",
}

tile{
  layer = 0,
  x = 824,
  y = 248,
  width = 24,
  height = 24,
  pattern = "wall.corner_reverse.4-3b",
}

tile{
  layer = 0,
  x = 888,
  y = 248,
  width = 24,
  height = 24,
  pattern = "wall.corner.4-3",
}

tile{
  layer = 0,
  x = 432,
  y = 240,
  width = 24,
  height = 24,
  pattern = "wall.corner.1-3",
}

tile{
  layer = 0,
  x = 504,
  y = 240,
  width = 24,
  height = 24,
  pattern = "wall.corner.2-3",
}

tile{
  layer = 0,
  x = 1040,
  y = 264,
  width = 24,
  height = 24,
  pattern = "wall.corner.3-3",
}

tile{
  layer = 0,
  x = 1072,
  y = 264,
  width = 24,
  height = 24,
  pattern = "wall.corner_reverse.3-3b",
}

tile{
  layer = 0,
  x = 1192,
  y = 264,
  width = 24,
  height = 24,
  pattern = "wall.corner_reverse.4-3b",
}

tile{
  layer = 0,
  x = 1224,
  y = 264,
  width = 24,
  height = 24,
  pattern = "wall.corner.4-3",
}

tile{
  layer = 0,
  x = 640,
  y = 272,
  width = 24,
  height = 24,
  pattern = "wall.corner.1-3",
}

tile{
  layer = 0,
  x = 704,
  y = 272,
  width = 24,
  height = 24,
  pattern = "wall.corner_reverse.1-3b",
}

tile{
  layer = 0,
  x = 824,
  y = 272,
  width = 24,
  height = 24,
  pattern = "wall.corner_reverse.2-3b",
}

tile{
  layer = 0,
  x = 856,
  y = 272,
  width = 24,
  height = 24,
  pattern = "wall.corner.2-3",
}

tile{
  layer = 0,
  x = 1040,
  y = 288,
  width = 24,
  height = 24,
  pattern = "wall.corner.1-3",
}

tile{
  layer = 0,
  x = 1072,
  y = 288,
  width = 24,
  height = 24,
  pattern = "wall.corner_reverse.1-3b",
}

tile{
  layer = 0,
  x = 1192,
  y = 288,
  width = 24,
  height = 24,
  pattern = "wall.corner_reverse.2-3b",
}

tile{
  layer = 0,
  x = 1224,
  y = 288,
  width = 24,
  height = 24,
  pattern = "wall.corner.2-3",
}

tile{
  layer = 0,
  x = 504,
  y = 304,
  width = 24,
  height = 24,
  pattern = "wall.corner_reverse.2-3b",
}

tile{
  layer = 0,
  x = 616,
  y = 304,
  width = 24,
  height = 24,
  pattern = "wall.corner.2-3",
}

tile{
  layer = 0,
  x = 432,
  y = 392,
  width = 24,
  height = 24,
  pattern = "wall.corner.3-3",
}

tile{
  layer = 0,
  x = 616,
  y = 392,
  width = 24,
  height = 24,
  pattern = "wall.corner.4-3",
}

tile{
  layer = 0,
  x = 640,
  y = 424,
  width = 24,
  height = 24,
  pattern = "wall.corner.3-3",
}

tile{
  layer = 0,
  x = 856,
  y = 424,
  width = 24,
  height = 24,
  pattern = "wall.corner.4-3",
}

tile{
  layer = 0,
  x = 1040,
  y = 424,
  width = 24,
  height = 24,
  pattern = "wall.corner.3-3",
}

tile{
  layer = 0,
  x = 1224,
  y = 424,
  width = 24,
  height = 24,
  pattern = "wall.corner.4-3",
}

tile{
  layer = 0,
  x = 168,
  y = 104,
  width = 8,
  height = 24,
  pattern = "stairs_inner_up.1.border.2-2",
}

tile{
  layer = 0,
  x = 152,
  y = 104,
  width = 16,
  height = 24,
  pattern = "stairs_inner_up.1-2",
}

tile{
  layer = 0,
  x = 144,
  y = 104,
  width = 8,
  height = 24,
  pattern = "stairs_inner_up.1.border.1-2",
}

tile{
  layer = 0,
  x = 152,
  y = 96,
  width = 16,
  height = 8,
  pattern = "stairs_inner_up.1.top-2",
}

tile{
  layer = 0,
  x = 256,
  y = 40,
  width = 8,
  height = 8,
  pattern = "ceiling.2",
}

tile{
  layer = 0,
  x = 760,
  y = 216,
  width = 32,
  height = 80,
  pattern = "deep_water",
  tileset = "extra/dungeon",
}

tile{
  layer = 0,
  x = 760,
  y = 88,
  width = 400,
  height = 48,
  pattern = "deep_water",
  tileset = "extra/dungeon",
}

tile{
  layer = 0,
  x = 1048,
  y = 120,
  width = 144,
  height = 80,
  pattern = "deep_water",
  tileset = "extra/dungeon",
}

tile{
  layer = 0,
  x = 1096,
  y = 200,
  width = 96,
  height = 32,
  pattern = "deep_water",
  tileset = "extra/dungeon",
}

tile{
  layer = 0,
  x = 1128,
  y = 232,
  width = 32,
  height = 80,
  pattern = "deep_water",
  tileset = "extra/dungeon",
}

tile{
  layer = 0,
  x = 760,
  y = 80,
  width = 400,
  height = 8,
  pattern = "5",
  tileset = "extra/dungeon",
}

tile{
  layer = 0,
  x = 752,
  y = 88,
  width = 8,
  height = 24,
  pattern = "8",
  tileset = "extra/dungeon",
}

tile{
  layer = 0,
  x = 1160,
  y = 88,
  width = 8,
  height = 24,
  pattern = "6",
  tileset = "extra/dungeon",
}

tile{
  layer = 0,
  x = 728,
  y = 112,
  width = 24,
  height = 8,
  pattern = "5",
  tileset = "extra/dungeon",
}

tile{
  layer = 0,
  x = 1168,
  y = 112,
  width = 24,
  height = 8,
  pattern = "5",
  tileset = "extra/dungeon",
}

tile{
  layer = 0,
  x = 720,
  y = 120,
  width = 8,
  height = 96,
  pattern = "8",
  tileset = "extra/dungeon",
}

tile{
  layer = 0,
  x = 1192,
  y = 120,
  width = 8,
  height = 112,
  pattern = "6",
  tileset = "extra/dungeon",
}

tile{
  layer = 0,
  x = 864,
  y = 136,
  width = 176,
  height = 8,
  pattern = "7",
  tileset = "extra/dungeon",
}

tile{
  layer = 0,
  x = 856,
  y = 144,
  width = 8,
  height = 72,
  pattern = "6",
  tileset = "extra/dungeon",
}

tile{
  layer = 0,
  x = 1040,
  y = 144,
  width = 8,
  height = 56,
  pattern = "8",
  tileset = "extra/dungeon",
}

tile{
  layer = 0,
  x = 1048,
  y = 200,
  width = 40,
  height = 8,
  pattern = "7",
  tileset = "extra/dungeon",
}

tile{
  layer = 0,
  x = 1088,
  y = 208,
  width = 8,
  height = 24,
  pattern = "8",
  tileset = "extra/dungeon",
}

tile{
  layer = 0,
  x = 728,
  y = 216,
  width = 24,
  height = 8,
  pattern = "7",
  tileset = "extra/dungeon",
}

tile{
  layer = 0,
  x = 800,
  y = 216,
  width = 56,
  height = 8,
  pattern = "7",
  tileset = "extra/dungeon",
}

tile{
  layer = 0,
  x = 752,
  y = 224,
  width = 8,
  height = 72,
  pattern = "8",
  tileset = "extra/dungeon",
}

tile{
  layer = 0,
  x = 792,
  y = 224,
  width = 8,
  height = 72,
  pattern = "6",
  tileset = "extra/dungeon",
}

tile{
  layer = 0,
  x = 1096,
  y = 232,
  width = 24,
  height = 8,
  pattern = "7",
  tileset = "extra/dungeon",
}

tile{
  layer = 0,
  x = 1168,
  y = 232,
  width = 24,
  height = 8,
  pattern = "7",
  tileset = "extra/dungeon",
}

tile{
  layer = 0,
  x = 1120,
  y = 240,
  width = 8,
  height = 72,
  pattern = "8",
  tileset = "extra/dungeon",
}

tile{
  layer = 0,
  x = 1160,
  y = 240,
  width = 8,
  height = 72,
  pattern = "6",
  tileset = "extra/dungeon",
}

tile{
  layer = 0,
  x = 760,
  y = 296,
  width = 32,
  height = 8,
  pattern = "7",
  tileset = "extra/dungeon",
}

tile{
  layer = 0,
  x = 1128,
  y = 312,
  width = 32,
  height = 8,
  pattern = "7",
  tileset = "extra/dungeon",
}

tile{
  layer = 0,
  x = 752,
  y = 80,
  width = 8,
  height = 8,
  pattern = "1",
  tileset = "extra/dungeon",
}

tile{
  layer = 0,
  x = 1160,
  y = 80,
  width = 8,
  height = 8,
  pattern = "2",
  tileset = "extra/dungeon",
}

tile{
  layer = 0,
  x = 720,
  y = 112,
  width = 8,
  height = 8,
  pattern = "1",
  tileset = "extra/dungeon",
}

tile{
  layer = 0,
  x = 752,
  y = 112,
  width = 8,
  height = 8,
  pattern = "9",
  tileset = "extra/dungeon",
}

tile{
  layer = 0,
  x = 1160,
  y = 112,
  width = 8,
  height = 8,
  pattern = "10",
  tileset = "extra/dungeon",
}

tile{
  layer = 0,
  x = 1192,
  y = 112,
  width = 8,
  height = 8,
  pattern = "2",
  tileset = "extra/dungeon",
}

tile{
  layer = 0,
  x = 856,
  y = 136,
  width = 8,
  height = 8,
  pattern = "11",
  tileset = "extra/dungeon",
}

tile{
  layer = 0,
  x = 1040,
  y = 136,
  width = 8,
  height = 8,
  pattern = "12",
  tileset = "extra/dungeon",
}

tile{
  layer = 0,
  x = 1040,
  y = 200,
  width = 8,
  height = 8,
  pattern = "4",
  tileset = "extra/dungeon",
}

tile{
  layer = 0,
  x = 1088,
  y = 200,
  width = 8,
  height = 8,
  pattern = "12",
  tileset = "extra/dungeon",
}

tile{
  layer = 0,
  x = 720,
  y = 216,
  width = 8,
  height = 8,
  pattern = "4",
  tileset = "extra/dungeon",
}

tile{
  layer = 0,
  x = 752,
  y = 216,
  width = 8,
  height = 8,
  pattern = "12",
  tileset = "extra/dungeon",
}

tile{
  layer = 0,
  x = 792,
  y = 216,
  width = 8,
  height = 8,
  pattern = "11",
  tileset = "extra/dungeon",
}

tile{
  layer = 0,
  x = 856,
  y = 216,
  width = 8,
  height = 8,
  pattern = "3",
  tileset = "extra/dungeon",
}

tile{
  layer = 0,
  x = 1088,
  y = 232,
  width = 8,
  height = 8,
  pattern = "4",
  tileset = "extra/dungeon",
}

tile{
  layer = 0,
  x = 1120,
  y = 232,
  width = 8,
  height = 8,
  pattern = "12",
  tileset = "extra/dungeon",
}

tile{
  layer = 0,
  x = 1160,
  y = 232,
  width = 8,
  height = 8,
  pattern = "11",
  tileset = "extra/dungeon",
}

tile{
  layer = 0,
  x = 1192,
  y = 232,
  width = 8,
  height = 8,
  pattern = "3",
  tileset = "extra/dungeon",
}

tile{
  layer = 0,
  x = 752,
  y = 296,
  width = 8,
  height = 8,
  pattern = "4",
  tileset = "extra/dungeon",
}

tile{
  layer = 0,
  x = 792,
  y = 296,
  width = 8,
  height = 8,
  pattern = "3",
  tileset = "extra/dungeon",
}

tile{
  layer = 0,
  x = 1120,
  y = 312,
  width = 8,
  height = 8,
  pattern = "4",
  tileset = "extra/dungeon",
}

tile{
  layer = 0,
  x = 1160,
  y = 312,
  width = 8,
  height = 8,
  pattern = "3",
  tileset = "extra/dungeon",
}

destination{
  name = "from_1f",
  layer = 0,
  x = 160,
  y = 125,
  direction = 3,
}

custom_entity{
  layer = 0,
  x = 104,
  y = 77,
  width = 16,
  height = 16,
  direction = 1,
  sprite = "entities/torch",
  model = "torch",
}

custom_entity{
  layer = 0,
  x = 216,
  y = 77,
  width = 16,
  height = 16,
  direction = 1,
  sprite = "entities/torch",
  model = "torch",
}

custom_entity{
  layer = 0,
  x = 104,
  y = 173,
  width = 16,
  height = 16,
  direction = 1,
  sprite = "entities/torch",
  model = "torch",
}

custom_entity{
  layer = 0,
  x = 216,
  y = 173,
  width = 16,
  height = 16,
  direction = 1,
  sprite = "entities/torch",
  model = "torch",
}

custom_entity{
  layer = 0,
  x = 392,
  y = 45,
  width = 16,
  height = 16,
  direction = 1,
  sprite = "entities/torch",
  model = "torch",
}

custom_entity{
  layer = 0,
  x = 568,
  y = 45,
  width = 16,
  height = 16,
  direction = 1,
  sprite = "entities/torch",
  model = "torch",
}

custom_entity{
  layer = 0,
  x = 392,
  y = 205,
  width = 16,
  height = 16,
  direction = 1,
  sprite = "entities/torch",
  model = "torch",
}

custom_entity{
  layer = 0,
  x = 568,
  y = 205,
  width = 16,
  height = 16,
  direction = 1,
  sprite = "entities/torch",
  model = "torch",
}

custom_entity{
  layer = 0,
  x = 360,
  y = 173,
  width = 16,
  height = 16,
  direction = 1,
  sprite = "entities/torch",
  model = "torch",
}

custom_entity{
  layer = 0,
  x = 360,
  y = 77,
  width = 16,
  height = 16,
  direction = 1,
  sprite = "entities/torch",
  model = "torch",
}

custom_entity{
  layer = 0,
  x = 600,
  y = 173,
  width = 16,
  height = 16,
  direction = 1,
  sprite = "entities/torch",
  model = "torch",
}

custom_entity{
  layer = 0,
  x = 600,
  y = 77,
  width = 16,
  height = 16,
  direction = 1,
  sprite = "entities/torch",
  model = "torch",
}

custom_entity{
  layer = 0,
  x = 680,
  y = 317,
  width = 16,
  height = 16,
  direction = 1,
  sprite = "entities/torch",
  model = "torch",
}

custom_entity{
  layer = 0,
  x = 840,
  y = 317,
  width = 16,
  height = 16,
  direction = 1,
  sprite = "entities/torch",
  model = "torch",
}

custom_entity{
  layer = 0,
  x = 680,
  y = 413,
  width = 16,
  height = 16,
  direction = 1,
  sprite = "entities/torch",
  model = "torch",
}

custom_entity{
  layer = 0,
  x = 840,
  y = 413,
  width = 16,
  height = 16,
  direction = 1,
  sprite = "entities/torch",
  model = "torch",
}

custom_entity{
  layer = 0,
  x = 1080,
  y = 333,
  width = 16,
  height = 16,
  direction = 1,
  sprite = "entities/torch",
  model = "torch",
}

custom_entity{
  layer = 0,
  x = 1208,
  y = 333,
  width = 16,
  height = 16,
  direction = 1,
  sprite = "entities/torch",
  model = "torch",
}

custom_entity{
  layer = 0,
  x = 1080,
  y = 413,
  width = 16,
  height = 16,
  direction = 1,
  sprite = "entities/torch",
  model = "torch",
}

custom_entity{
  layer = 0,
  x = 1208,
  y = 413,
  width = 16,
  height = 16,
  direction = 1,
  sprite = "entities/torch",
  model = "torch",
}

wall{
  layer = 0,
  x = 472,
  y = 216,
  width = 16,
  height = 48,
  stops_enemies = true,
  stops_blocks = true,
}

wall{
  layer = 0,
  x = 296,
  y = 112,
  width = 48,
  height = 16,
  stops_enemies = true,
  stops_blocks = true,
}

wall{
  layer = 0,
  x = 616,
  y = 352,
  width = 48,
  height = 16,
  stops_enemies = true,
  stops_blocks = true,
}

wall{
  layer = 0,
  x = 144,
  y = 96,
  width = 32,
  height = 8,
  stops_hero = true,
  stops_npcs = true,
  stops_enemies = true,
  stops_blocks = true,
  stops_projectiles = true,
}

teletransporter{
  layer = 0,
  x = 152,
  y = 112,
  width = 16,
  height = 16,
  destination_map = "caves/desert_cave/1f",
  destination = "from_b1",
}

stairs{
  layer = 0,
  x = 152,
  y = 112,
  direction = 1,
  subtype = 2,
}

destination{
  name = "from_outside",
  layer = 0,
  x = 1144,
  y = 373,
  direction = 1,
}

tile{
  layer = 1,
  x = 432,
  y = 240,
  width = 96,
  height = 8,
  pattern = "door_cache.1-3",
}

tile{
  layer = 1,
  x = 432,
  y = 232,
  width = 96,
  height = 8,
  pattern = "door_cache.2-3",
}

tile{
  layer = 1,
  x = 464,
  y = 240,
  width = 32,
  height = 8,
  pattern = "door_top.1-3",
}

tile{
  layer = 1,
  x = 464,
  y = 232,
  width = 32,
  height = 8,
  pattern = "door_top.2-3",
}

tile{
  layer = 1,
  x = 312,
  y = 80,
  width = 8,
  height = 80,
  pattern = "door_cache.4-3",
}

tile{
  layer = 1,
  x = 320,
  y = 80,
  width = 8,
  height = 80,
  pattern = "door_cache.3-3",
}

tile{
  layer = 1,
  x = 320,
  y = 104,
  width = 8,
  height = 32,
  pattern = "door_top.3-3",
}

tile{
  layer = 1,
  x = 312,
  y = 104,
  width = 8,
  height = 32,
  pattern = "door_top.4-3",
}

tile{
  layer = 1,
  x = 632,
  y = 320,
  width = 8,
  height = 80,
  pattern = "door_cache.4-3",
}

tile{
  layer = 1,
  x = 640,
  y = 320,
  width = 8,
  height = 80,
  pattern = "door_cache.3-3",
}

tile{
  layer = 1,
  x = 640,
  y = 344,
  width = 8,
  height = 32,
  pattern = "door_top.3-3",
}

tile{
  layer = 1,
  x = 632,
  y = 344,
  width = 8,
  height = 32,
  pattern = "door_top.4-3",
}

tile{
  layer = 1,
  x = 144,
  y = 96,
  width = 8,
  height = 8,
  pattern = "stairs_inner_up.1.top.border.1-2",
}

tile{
  layer = 1,
  x = 168,
  y = 96,
  width = 8,
  height = 8,
  pattern = "stairs_inner_up.1.top.border.2-2",
}

tile{
  layer = 1,
  x = 0,
  y = 0,
  width = 352,
  height = 32,
  pattern = "ceiling.2",
}

tile{
  layer = 1,
  x = 256,
  y = 32,
  width = 64,
  height = 32,
  pattern = "ceiling.2",
}

tile{
  layer = 1,
  x = 256,
  y = 176,
  width = 64,
  height = 32,
  pattern = "ceiling.2",
}

tile{
  layer = 1,
  x = 0,
  y = 32,
  width = 64,
  height = 176,
  pattern = "ceiling.2",
}

tile{
  layer = 1,
  x = 320,
  y = 208,
  width = 32,
  height = 32,
  pattern = "ceiling.2",
}

tile{
  layer = 1,
  x = 608,
  y = 208,
  width = 32,
  height = 32,
  pattern = "ceiling.2",
}

tile{
  layer = 1,
  x = 608,
  y = 0,
  width = 672,
  height = 32,
  pattern = "ceiling.2",
}

tile{
  layer = 1,
  x = 528,
  y = 240,
  width = 112,
  height = 64,
  pattern = "ceiling.2",
}

tile{
  layer = 1,
  x = 320,
  y = 240,
  width = 112,
  height = 176,
  pattern = "ceiling.2",
}

tile{
  layer = 1,
  x = 320,
  y = 416,
  width = 320,
  height = 64,
  pattern = "ceiling.2",
}

tile{
  layer = 1,
  x = 640,
  y = 448,
  width = 640,
  height = 32,
  pattern = "ceiling.2",
}

tile{
  layer = 1,
  x = 912,
  y = 192,
  width = 80,
  height = 64,
  pattern = "ceiling.2",
}

tile{
  layer = 1,
  x = 912,
  y = 256,
  width = 128,
  height = 16,
  pattern = "ceiling.2",
}

tile{
  layer = 1,
  x = 880,
  y = 272,
  width = 160,
  height = 176,
  pattern = "ceiling.2",
}

tile{
  layer = 1,
  x = 1216,
  y = 32,
  width = 32,
  height = 32,
  pattern = "ceiling.2",
}

tile{
  layer = 1,
  x = 1248,
  y = 32,
  width = 32,
  height = 416,
  pattern = "ceiling.2",
}

tile{
  layer = 1,
  x = 672,
  y = 32,
  width = 32,
  height = 32,
  pattern = "ceiling.2",
}

tile{
  layer = 1,
  x = 640,
  y = 32,
  width = 32,
  height = 240,
  pattern = "ceiling.2",
}

tile{
  layer = 1,
  x = 0,
  y = 208,
  width = 320,
  height = 32,
  pattern = "ceiling.2",
}

separator{
  layer = 2,
  x = 312,
  y = 0,
  width = 16,
  height = 480,
}

separator{
  layer = 2,
  x = 0,
  y = 232,
  width = 640,
  height = 16,
}

separator{
  layer = 2,
  x = 632,
  y = 0,
  width = 16,
  height = 480,
}

